[18549:775:0611/091307.964893:INFO:CONSOLE(20642)] "[TB] :WARN :9:13:7 - [Background - Core] empty list of servers", source: chrome-extension://omdakjcmkglenbhjadbccaookpfjihpa/tunnelbear_background.js (20642)
[18549:775:0611/091309.783564:INFO:CONSOLE(20642)] "[TB] :WARN :9:13:9 - [Background - Core] Timer: empty list of servers", source: chrome-extension://omdakjcmkglenbhjadbccaookpfjihpa/tunnelbear_background.js (20642)
[18549:775:0611/091313.957048:INFO:CONSOLE(7)] "SW registered", source: https://www.google.com/_/chrome/newtab?ie=UTF-8 (7)
[18549:775:0611/091314.538543:ERROR:native_view_host_mac.mm(100)] Not implemented reached in virtual bool views::NativeViewHostMac::SetCornerRadius(int)
[18549:775:0611/091357.399340:WARNING:pref_notifier_impl.cc(23)] Pref observer found at shutdown.
[18549:775:0611/091357.445926:WARNING:pref_notifier_impl.cc(23)] Pref observer found at shutdown.
